{
  "id": 78,
  "username": "achmedo",
  "passhash": "*",
  "realname": "Ach Medo",
  "comment": null,
  "userinfo": {
  },
  "status": null,
  "created_at": "2017-05-31 07:56:16 UTC",
  "updated_at": "2017-05-31 07:56:16 UTC",
  "created_by": 9,
  "updated_by": 9,
  "metadata": {
    "_commentby": 9
  },
  "dashboardinfo": [

  ]
}