[
    {"key": "customTags", "active": false, "name": "custom procedure tags", "description": "custom procedure tags"},
    {"key": "autocode", "active": false, "name": "automatic code generation", "description": "automatic code generation"},
    {"key": "configtable", "active": false, "name": "configuration tables", "description": "model and unit configuration tables"}
]